%YAML 1.1
%TAG !u! tag:unity3d.com,2011:
--- !u!74 &7400000
AnimationClip:
  m_ObjectHideFlags: 0
  m_CorrespondingSourceObject: {fileID: 0}
  m_PrefabInstance: {fileID: 0}
  m_PrefabAsset: {fileID: 0}
  m_Name: Dynamite_Coutdown
  serializedVersion: 6
  m_Legacy: 0
  m_Compressed: 0
  m_UseHighQualityCurve: 1
  m_RotationCurves: []
  m_CompressedRotationCurves: []
  m_EulerCurves: []
  m_PositionCurves: []
  m_ScaleCurves: []
  m_FloatCurves: []
  m_PPtrCurves:
  - curve:
    - time: 0
      value: {fileID: 446804294122998495, guid: 06e7ee68db6b6a94bbabea73048d416c,
        type: 3}
    - time: 0.26666668
      value: {fileID: -195038631371206036, guid: 06e7ee68db6b6a94bbabea73048d416c,
        type: 3}
    - time: 0.53333336
      value: {fileID: -4024041921817359269, guid: 06e7ee68db6b6a94bbabea73048d416c,
        type: 3}
    - time: 0.8
      value: {fileID: -7296373860982745613, guid: 06e7ee68db6b6a94bbabea73048d416c,
        type: 3}
    - time: 1.0666667
      value: {fileID: 7197285751468560933, guid: 06e7ee68db6b6a94bbabea73048d416c,
        type: 3}
    - time: 1.3333334
      value: {fileID: -3266523499793350271, guid: 06e7ee68db6b6a94bbabea73048d416c,
        type: 3}
    - time: 1.6
      value: {fileID: -8893486141798476815, guid: 06e7ee68db6b6a94bbabea73048d416c,
        type: 3}
    - time: 1.8666667
      value: {fileID: 3831766062840281984, guid: 06e7ee68db6b6a94bbabea73048d416c,
        type: 3}
    - time: 2.1333334
      value: {fileID: 3739626773198368093, guid: 06e7ee68db6b6a94bbabea73048d416c,
        type: 3}
    - time: 2.3833334
      value: {fileID: -3539063919242458777, guid: 06e7ee68db6b6a94bbabea73048d416c,
        type: 3}
    - time: 2.65
      value: {fileID: -4715317531929100334, guid: 06e7ee68db6b6a94bbabea73048d416c,
        type: 3}
    - time: 2.9166667
      value: {fileID: 3402196815427702522, guid: 06e7ee68db6b6a94bbabea73048d416c,
        type: 3}
    - time: 3.1833334
      value: {fileID: -2004893948452806588, guid: 06e7ee68db6b6a94bbabea73048d416c,
        type: 3}
    - time: 3.45
      value: {fileID: -8380095951655405159, guid: 06e7ee68db6b6a94bbabea73048d416c,
        type: 3}
    - time: 3.7166667
      value: {fileID: -480315330085155704, guid: 06e7ee68db6b6a94bbabea73048d416c,
        type: 3}
    - time: 3.9833333
      value: {fileID: 5622883659967902624, guid: 06e7ee68db6b6a94bbabea73048d416c,
        type: 3}
    - time: 4.25
      value: {fileID: -7304499234514230029, guid: 06e7ee68db6b6a94bbabea73048d416c,
        type: 3}
    attribute: m_Sprite
    path: 
    classID: 114
    script: {fileID: 11500000, guid: fe87c0e1cc204ed48ad3b37840f39efc, type: 3}
  m_SampleRate: 60
  m_WrapMode: 0
  m_Bounds:
    m_Center: {x: 0, y: 0, z: 0}
    m_Extent: {x: 0, y: 0, z: 0}
  m_ClipBindingConstant:
    genericBindings:
    - serializedVersion: 2
      path: 0
      attribute: 2015549526
      script: {fileID: 11500000, guid: fe87c0e1cc204ed48ad3b37840f39efc, type: 3}
      typeID: 114
      customType: 0
      isPPtrCurve: 1
    pptrCurveMapping:
    - {fileID: 446804294122998495, guid: 06e7ee68db6b6a94bbabea73048d416c, type: 3}
    - {fileID: -195038631371206036, guid: 06e7ee68db6b6a94bbabea73048d416c, type: 3}
    - {fileID: -4024041921817359269, guid: 06e7ee68db6b6a94bbabea73048d416c, type: 3}
    - {fileID: -7296373860982745613, guid: 06e7ee68db6b6a94bbabea73048d416c, type: 3}
    - {fileID: 7197285751468560933, guid: 06e7ee68db6b6a94bbabea73048d416c, type: 3}
    - {fileID: -3266523499793350271, guid: 06e7ee68db6b6a94bbabea73048d416c, type: 3}
    - {fileID: -8893486141798476815, guid: 06e7ee68db6b6a94bbabea73048d416c, type: 3}
    - {fileID: 3831766062840281984, guid: 06e7ee68db6b6a94bbabea73048d416c, type: 3}
    - {fileID: 3739626773198368093, guid: 06e7ee68db6b6a94bbabea73048d416c, type: 3}
    - {fileID: -3539063919242458777, guid: 06e7ee68db6b6a94bbabea73048d416c, type: 3}
    - {fileID: -4715317531929100334, guid: 06e7ee68db6b6a94bbabea73048d416c, type: 3}
    - {fileID: 3402196815427702522, guid: 06e7ee68db6b6a94bbabea73048d416c, type: 3}
    - {fileID: -2004893948452806588, guid: 06e7ee68db6b6a94bbabea73048d416c, type: 3}
    - {fileID: -8380095951655405159, guid: 06e7ee68db6b6a94bbabea73048d416c, type: 3}
    - {fileID: -480315330085155704, guid: 06e7ee68db6b6a94bbabea73048d416c, type: 3}
    - {fileID: 5622883659967902624, guid: 06e7ee68db6b6a94bbabea73048d416c, type: 3}
    - {fileID: -7304499234514230029, guid: 06e7ee68db6b6a94bbabea73048d416c, type: 3}
  m_AnimationClipSettings:
    serializedVersion: 2
    m_AdditiveReferencePoseClip: {fileID: 0}
    m_AdditiveReferencePoseTime: 0
    m_StartTime: 0
    m_StopTime: 4.266667
    m_OrientationOffsetY: 0
    m_Level: 0
    m_CycleOffset: 0
    m_HasAdditiveReferencePose: 0
    m_LoopTime: 1
    m_LoopBlend: 0
    m_LoopBlendOrientation: 0
    m_LoopBlendPositionY: 0
    m_LoopBlendPositionXZ: 0
    m_KeepOriginalOrientation: 0
    m_KeepOriginalPositionY: 1
    m_KeepOriginalPositionXZ: 0
    m_HeightFromFeet: 0
    m_Mirror: 0
  m_EditorCurves: []
  m_EulerEditorCurves: []
  m_HasGenericRootTransform: 0
  m_HasMotionFloatCurves: 0
  m_Events: []
