%YAML 1.1
%TAG !u! tag:unity3d.com,2011:
--- !u!114 &11400000
MonoBehaviour:
  m_ObjectHideFlags: 0
  m_CorrespondingSourceObject: {fileID: 0}
  m_PrefabInstance: {fileID: 0}
  m_PrefabAsset: {fileID: 0}
  m_GameObject: {fileID: 0}
  m_Enabled: 1
  m_EditorHideFlags: 0
  m_Script: {fileID: -1893448595, guid: a040fb66244a7f54289914d98ea4ef7d, type: 3}
  m_Name: Get_Soundanager_PitchState
  m_EditorClassIdentifier: 
  _data:
    _json: '{"graph":{"variables":{"collection":{"$content":[],"$version":"A"},"$version":"A"},"controlInputDefinitions":[{"key":"Input","label":null,"summary":null,"hideLabel":false}],"controlOutputDefinitions":[{"key":"Slow_State","label":null,"summary":null,"hideLabel":false},{"key":"Normal_State","label":null,"summary":null,"hideLabel":false},{"key":"Quick_State","label":null,"summary":null,"hideLabel":false}],"valueInputDefinitions":[],"valueOutputDefinitions":[],"title":null,"summary":null,"pan":{"x":-398.6935,"y":267.8798},"zoom":1.0,"elements":[{"defaultValues":{},"position":{"x":-250.0,"y":-30.0},"guid":"9392d0ab-e3bb-4dc3-9a51-46a455d82689","$version":"A","$type":"Bolt.GraphInput","$id":"13"},{"type":"System.String","value":{"$content":"quick","$type":"System.String"},"defaultValues":{},"position":{"x":146.0,"y":381.0},"guid":"b6841e90-4db4-4b9a-b76f-f115a18e36d8","$version":"A","$type":"Bolt.Literal","$id":"15"},{"numeric":false,"defaultValues":{},"position":{"x":272.0,"y":282.0},"guid":"c1ffc10d-0b16-4241-8470-397257491aa6","$version":"A","$type":"Bolt.Equal","$id":"17"},{"defaultValues":{},"position":{"x":494.0,"y":181.0},"guid":"fb4eec30-8a39-4347-b17f-6e9159a44f1c","$version":"A","$type":"Bolt.Branch","$id":"19"},{"type":"System.String","value":{"$content":"normal","$type":"System.String"},"defaultValues":{},"position":{"x":-26.0,"y":261.0},"guid":"bacfde26-2b37-4064-a28b-6d9491baf715","$version":"A","$type":"Bolt.Literal","$id":"21"},{"numeric":false,"defaultValues":{},"position":{"x":100.0,"y":162.0},"guid":"2ae1b991-d400-4c93-af18-bd30866c94fd","$version":"A","$type":"Bolt.Equal","$id":"23"},{"defaultValues":{},"position":{"x":280.0,"y":86.0},"guid":"be52c88a-6fb7-48c4-8d58-3a951589f05c","$version":"A","$type":"Bolt.Branch","$id":"25"},{"numeric":false,"defaultValues":{},"position":{"x":-126.0,"y":83.0},"guid":"c480d273-aec7-487e-abac-dfefa7114140","$version":"A","$type":"Bolt.Equal","$id":"27"},{"specifyFallback":false,"kind":"Object","defaultValues":{"name":{"$content":"sPitchState","$type":"System.String"},"object":null},"position":{"x":-468.0,"y":113.0},"guid":"6ceaee79-379a-4ae3-b4c6-de31f41f444f","$version":"A","$type":"Bolt.GetVariable","$id":"29"},{"specifyFallback":false,"kind":"Application","defaultValues":{"name":{"$content":"SoundManager","$type":"System.String"}},"position":{"x":-712.0,"y":120.0},"guid":"1e24837c-df5a-4dfc-904a-604211bacf35","$version":"A","$type":"Bolt.GetVariable","$id":"31"},{"defaultValues":{},"position":{"x":8.0,"y":-36.0},"guid":"0ce492a9-f04c-4cdf-a0be-74588d3b04a1","$version":"A","$type":"Bolt.Branch","$id":"33"},{"defaultValues":{},"position":{"x":696.0,"y":-42.0},"guid":"9eb6d0b0-48aa-4211-8739-341986c9048b","$version":"A","$type":"Bolt.GraphOutput","$id":"35"},{"type":"System.String","value":{"$content":"slow","$type":"System.String"},"defaultValues":{},"position":{"x":-252.0,"y":138.0},"guid":"be8511de-bf1b-4ab3-a90f-1fea0033f38a","$version":"A","$type":"Bolt.Literal","$id":"37"},{"sourceUnit":{"$ref":"33"},"sourceKey":"ifTrue","destinationUnit":{"$ref":"35"},"destinationKey":"Slow_State","guid":"ad6af736-ecff-4ba5-b574-7c26d3a8873e","$type":"Bolt.ControlConnection"},{"sourceUnit":{"$ref":"19"},"sourceKey":"ifTrue","destinationUnit":{"$ref":"35"},"destinationKey":"Quick_State","guid":"6b381d8e-84dc-447f-8c61-90f4b78b61a1","$type":"Bolt.ControlConnection"},{"sourceUnit":{"$ref":"25"},"sourceKey":"ifFalse","destinationUnit":{"$ref":"19"},"destinationKey":"enter","guid":"be974c6f-380d-4b84-81ad-81ab6958674b","$type":"Bolt.ControlConnection"},{"sourceUnit":{"$ref":"25"},"sourceKey":"ifTrue","destinationUnit":{"$ref":"35"},"destinationKey":"Normal_State","guid":"10e1e9b8-6963-4189-aba5-d62c1ad01901","$type":"Bolt.ControlConnection"},{"sourceUnit":{"$ref":"33"},"sourceKey":"ifFalse","destinationUnit":{"$ref":"25"},"destinationKey":"enter","guid":"eb7e8e9b-3732-4dbc-aa1a-6c53417aa8f7","$type":"Bolt.ControlConnection"},{"sourceUnit":{"$ref":"13"},"sourceKey":"Input","destinationUnit":{"$ref":"33"},"destinationKey":"enter","guid":"d8bb8cc7-cd6f-4770-a709-368fcac2bd1a","$type":"Bolt.ControlConnection"},{"sourceUnit":{"$ref":"37"},"sourceKey":"output","destinationUnit":{"$ref":"27"},"destinationKey":"b","guid":"43566ba6-fac3-4ab3-8a80-83baba65b1e5","$type":"Bolt.ValueConnection"},{"sourceUnit":{"$ref":"15"},"sourceKey":"output","destinationUnit":{"$ref":"17"},"destinationKey":"b","guid":"8f378f82-88a5-43bb-b960-51b315c65989","$type":"Bolt.ValueConnection"},{"sourceUnit":{"$ref":"29"},"sourceKey":"value","destinationUnit":{"$ref":"23"},"destinationKey":"a","guid":"48b77a63-20ea-4bc5-8a82-9690625da6dd","$type":"Bolt.ValueConnection"},{"sourceUnit":{"$ref":"23"},"sourceKey":"equal","destinationUnit":{"$ref":"25"},"destinationKey":"condition","guid":"4ab385cd-b6b3-413b-b003-f2bd430ac0bb","$type":"Bolt.ValueConnection"},{"sourceUnit":{"$ref":"27"},"sourceKey":"equal","destinationUnit":{"$ref":"33"},"destinationKey":"condition","guid":"8ec5df21-5cc2-47d4-9380-3c4ee1833f4d","$type":"Bolt.ValueConnection"},{"sourceUnit":{"$ref":"21"},"sourceKey":"output","destinationUnit":{"$ref":"23"},"destinationKey":"b","guid":"c8d561cb-fee3-4714-94a2-fdb40c89c134","$type":"Bolt.ValueConnection"},{"sourceUnit":{"$ref":"29"},"sourceKey":"value","destinationUnit":{"$ref":"27"},"destinationKey":"a","guid":"2ff161a2-553c-4f09-a33f-c6d54733490c","$type":"Bolt.ValueConnection"},{"sourceUnit":{"$ref":"17"},"sourceKey":"equal","destinationUnit":{"$ref":"19"},"destinationKey":"condition","guid":"1ed8c794-3b89-4bc6-9bb4-7208b4b29d93","$type":"Bolt.ValueConnection"},{"sourceUnit":{"$ref":"31"},"sourceKey":"value","destinationUnit":{"$ref":"29"},"destinationKey":"object","guid":"d9449270-936d-4fc4-8f1a-061f5f0eac96","$type":"Bolt.ValueConnection"},{"sourceUnit":{"$ref":"29"},"sourceKey":"value","destinationUnit":{"$ref":"17"},"destinationKey":"a","guid":"9550ba60-2aaf-41a3-9cb8-163a15033824","$type":"Bolt.ValueConnection"}],"$version":"A"}}'
    _objectReferences: []
