%YAML 1.1
%TAG !u! tag:unity3d.com,2011:
--- !u!1001 &5822240148462334981
PrefabInstance:
  m_ObjectHideFlags: 0
  serializedVersion: 2
  m_Modification:
    m_TransformParent: {fileID: 1829646412982217096}
    m_Modifications:
    - target: {fileID: 343134669906399044, guid: bd85b24c9747f9f40bf0caccf66538ef,
        type: 3}
      propertyPath: m_SpriteTilingProperty.border.x
      value: 0
      objectReference: {fileID: 0}
    - target: {fileID: 343134669906399044, guid: bd85b24c9747f9f40bf0caccf66538ef,
        type: 3}
      propertyPath: m_SpriteTilingProperty.border.z
      value: 0
      objectReference: {fileID: 0}
    - target: {fileID: 343134669906399044, guid: bd85b24c9747f9f40bf0caccf66538ef,
        type: 3}
      propertyPath: m_SpriteTilingProperty.oldSize.x
      value: 1.28
      objectReference: {fileID: 0}
    - target: {fileID: 343134669906399044, guid: bd85b24c9747f9f40bf0caccf66538ef,
        type: 3}
      propertyPath: m_SpriteTilingProperty.oldSize.y
      value: 1.28
      objectReference: {fileID: 0}
    - target: {fileID: 343134669906399044, guid: bd85b24c9747f9f40bf0caccf66538ef,
        type: 3}
      propertyPath: m_Offset.x
      value: -0.015179366
      objectReference: {fileID: 0}
    - target: {fileID: 343134669906399044, guid: bd85b24c9747f9f40bf0caccf66538ef,
        type: 3}
      propertyPath: m_Offset.y
      value: -0.345857
      objectReference: {fileID: 0}
    - target: {fileID: 343134669906399044, guid: bd85b24c9747f9f40bf0caccf66538ef,
        type: 3}
      propertyPath: m_Size.y
      value: 0.34942454
      objectReference: {fileID: 0}
    - target: {fileID: 343134669906399044, guid: bd85b24c9747f9f40bf0caccf66538ef,
        type: 3}
      propertyPath: m_Size.x
      value: 0.37018186
      objectReference: {fileID: 0}
    - target: {fileID: 1130949503809781054, guid: bd85b24c9747f9f40bf0caccf66538ef,
        type: 3}
      propertyPath: _data._objectReferences.Array.data[0]
      value: 
      objectReference: {fileID: 11400000, guid: e18c1de1d52bb0f409abc746a150da97,
        type: 2}
    - target: {fileID: 1130949503809781054, guid: bd85b24c9747f9f40bf0caccf66538ef,
        type: 3}
      propertyPath: m_Enabled
      value: 0
      objectReference: {fileID: 0}
    - target: {fileID: 5307761707323461460, guid: bd85b24c9747f9f40bf0caccf66538ef,
        type: 3}
      propertyPath: m_LocalPosition.x
      value: -0.62351054
      objectReference: {fileID: 0}
    - target: {fileID: 5307761707323461460, guid: bd85b24c9747f9f40bf0caccf66538ef,
        type: 3}
      propertyPath: m_LocalPosition.y
      value: 0
      objectReference: {fileID: 0}
    - target: {fileID: 5307761707323461460, guid: bd85b24c9747f9f40bf0caccf66538ef,
        type: 3}
      propertyPath: m_LocalPosition.z
      value: 0
      objectReference: {fileID: 0}
    - target: {fileID: 5307761707323461460, guid: bd85b24c9747f9f40bf0caccf66538ef,
        type: 3}
      propertyPath: m_LocalRotation.x
      value: -0
      objectReference: {fileID: 0}
    - target: {fileID: 5307761707323461460, guid: bd85b24c9747f9f40bf0caccf66538ef,
        type: 3}
      propertyPath: m_LocalRotation.y
      value: -0
      objectReference: {fileID: 0}
    - target: {fileID: 5307761707323461460, guid: bd85b24c9747f9f40bf0caccf66538ef,
        type: 3}
      propertyPath: m_LocalRotation.z
      value: -0
      objectReference: {fileID: 0}
    - target: {fileID: 5307761707323461460, guid: bd85b24c9747f9f40bf0caccf66538ef,
        type: 3}
      propertyPath: m_LocalRotation.w
      value: 1
      objectReference: {fileID: 0}
    - target: {fileID: 5307761707323461460, guid: bd85b24c9747f9f40bf0caccf66538ef,
        type: 3}
      propertyPath: m_RootOrder
      value: 2
      objectReference: {fileID: 0}
    - target: {fileID: 5307761707323461460, guid: bd85b24c9747f9f40bf0caccf66538ef,
        type: 3}
      propertyPath: m_LocalEulerAnglesHint.x
      value: 0
      objectReference: {fileID: 0}
    - target: {fileID: 5307761707323461460, guid: bd85b24c9747f9f40bf0caccf66538ef,
        type: 3}
      propertyPath: m_LocalEulerAnglesHint.y
      value: 0
      objectReference: {fileID: 0}
    - target: {fileID: 5307761707323461460, guid: bd85b24c9747f9f40bf0caccf66538ef,
        type: 3}
      propertyPath: m_LocalEulerAnglesHint.z
      value: 0
      objectReference: {fileID: 0}
    - target: {fileID: 5307761707323461460, guid: bd85b24c9747f9f40bf0caccf66538ef,
        type: 3}
      propertyPath: m_LocalScale.x
      value: 1
      objectReference: {fileID: 0}
    - target: {fileID: 5307761707323461460, guid: bd85b24c9747f9f40bf0caccf66538ef,
        type: 3}
      propertyPath: m_LocalScale.y
      value: 1
      objectReference: {fileID: 0}
    - target: {fileID: 7041431514006817334, guid: bd85b24c9747f9f40bf0caccf66538ef,
        type: 3}
      propertyPath: m_Name
      value: NpcDUP (1)
      objectReference: {fileID: 0}
    - target: {fileID: 7182711272865479198, guid: bd85b24c9747f9f40bf0caccf66538ef,
        type: 3}
      propertyPath: m_Sprite
      value: 
      objectReference: {fileID: 21300000, guid: c338a1b2f6172594781c1b47bb1ea7de,
        type: 3}
    m_RemovedComponents: []
  m_SourcePrefab: {fileID: 100100000, guid: bd85b24c9747f9f40bf0caccf66538ef, type: 3}
--- !u!1001 &5822240148681713372
PrefabInstance:
  m_ObjectHideFlags: 0
  serializedVersion: 2
  m_Modification:
    m_TransformParent: {fileID: 0}
    m_Modifications:
    - target: {fileID: 343134669906399044, guid: bd85b24c9747f9f40bf0caccf66538ef,
        type: 3}
      propertyPath: m_SpriteTilingProperty.border.x
      value: 0
      objectReference: {fileID: 0}
    - target: {fileID: 343134669906399044, guid: bd85b24c9747f9f40bf0caccf66538ef,
        type: 3}
      propertyPath: m_SpriteTilingProperty.border.z
      value: 0
      objectReference: {fileID: 0}
    - target: {fileID: 343134669906399044, guid: bd85b24c9747f9f40bf0caccf66538ef,
        type: 3}
      propertyPath: m_SpriteTilingProperty.oldSize.x
      value: 1.28
      objectReference: {fileID: 0}
    - target: {fileID: 343134669906399044, guid: bd85b24c9747f9f40bf0caccf66538ef,
        type: 3}
      propertyPath: m_SpriteTilingProperty.oldSize.y
      value: 1.28
      objectReference: {fileID: 0}
    - target: {fileID: 1130949503809781054, guid: bd85b24c9747f9f40bf0caccf66538ef,
        type: 3}
      propertyPath: _data._objectReferences.Array.data[0]
      value: 
      objectReference: {fileID: 11400000, guid: e18c1de1d52bb0f409abc746a150da97,
        type: 2}
    - target: {fileID: 5307761707323461460, guid: bd85b24c9747f9f40bf0caccf66538ef,
        type: 3}
      propertyPath: m_LocalPosition.x
      value: 8.82
      objectReference: {fileID: 0}
    - target: {fileID: 5307761707323461460, guid: bd85b24c9747f9f40bf0caccf66538ef,
        type: 3}
      propertyPath: m_LocalPosition.y
      value: 5.6
      objectReference: {fileID: 0}
    - target: {fileID: 5307761707323461460, guid: bd85b24c9747f9f40bf0caccf66538ef,
        type: 3}
      propertyPath: m_LocalPosition.z
      value: 4.5634766
      objectReference: {fileID: 0}
    - target: {fileID: 5307761707323461460, guid: bd85b24c9747f9f40bf0caccf66538ef,
        type: 3}
      propertyPath: m_LocalRotation.x
      value: -0
      objectReference: {fileID: 0}
    - target: {fileID: 5307761707323461460, guid: bd85b24c9747f9f40bf0caccf66538ef,
        type: 3}
      propertyPath: m_LocalRotation.y
      value: -0
      objectReference: {fileID: 0}
    - target: {fileID: 5307761707323461460, guid: bd85b24c9747f9f40bf0caccf66538ef,
        type: 3}
      propertyPath: m_LocalRotation.z
      value: -0
      objectReference: {fileID: 0}
    - target: {fileID: 5307761707323461460, guid: bd85b24c9747f9f40bf0caccf66538ef,
        type: 3}
      propertyPath: m_LocalRotation.w
      value: 1
      objectReference: {fileID: 0}
    - target: {fileID: 5307761707323461460, guid: bd85b24c9747f9f40bf0caccf66538ef,
        type: 3}
      propertyPath: m_RootOrder
      value: 0
      objectReference: {fileID: 0}
    - target: {fileID: 5307761707323461460, guid: bd85b24c9747f9f40bf0caccf66538ef,
        type: 3}
      propertyPath: m_LocalEulerAnglesHint.x
      value: 0
      objectReference: {fileID: 0}
    - target: {fileID: 5307761707323461460, guid: bd85b24c9747f9f40bf0caccf66538ef,
        type: 3}
      propertyPath: m_LocalEulerAnglesHint.y
      value: 0
      objectReference: {fileID: 0}
    - target: {fileID: 5307761707323461460, guid: bd85b24c9747f9f40bf0caccf66538ef,
        type: 3}
      propertyPath: m_LocalEulerAnglesHint.z
      value: 0
      objectReference: {fileID: 0}
    - target: {fileID: 7041431514006817334, guid: bd85b24c9747f9f40bf0caccf66538ef,
        type: 3}
      propertyPath: m_Name
      value: Intrus
      objectReference: {fileID: 0}
    - target: {fileID: 7041431514006817334, guid: bd85b24c9747f9f40bf0caccf66538ef,
        type: 3}
      propertyPath: m_TagString
      value: Intrus
      objectReference: {fileID: 0}
    - target: {fileID: 7182711272865479198, guid: bd85b24c9747f9f40bf0caccf66538ef,
        type: 3}
      propertyPath: m_Sprite
      value: 
      objectReference: {fileID: 21300000, guid: 1c6f34f01d6b8084eb2ffcc6ea94b995,
        type: 3}
    m_RemovedComponents: []
  m_SourcePrefab: {fileID: 100100000, guid: bd85b24c9747f9f40bf0caccf66538ef, type: 3}
--- !u!4 &1829646412982217096 stripped
Transform:
  m_CorrespondingSourceObject: {fileID: 5307761707323461460, guid: bd85b24c9747f9f40bf0caccf66538ef,
    type: 3}
  m_PrefabInstance: {fileID: 5822240148681713372}
  m_PrefabAsset: {fileID: 0}
