%YAML 1.1
%TAG !u! tag:unity3d.com,2011:
--- !u!1001 &3119885828498029123
PrefabInstance:
  m_ObjectHideFlags: 0
  serializedVersion: 2
  m_Modification:
    m_TransformParent: {fileID: 0}
    m_Modifications:
    - target: {fileID: 343134669906399044, guid: bd85b24c9747f9f40bf0caccf66538ef,
        type: 3}
      propertyPath: m_IsTrigger
      value: 0
      objectReference: {fileID: 0}
    - target: {fileID: 5307761707323461460, guid: bd85b24c9747f9f40bf0caccf66538ef,
        type: 3}
      propertyPath: m_RootOrder
      value: 0
      objectReference: {fileID: 0}
    - target: {fileID: 5307761707323461460, guid: bd85b24c9747f9f40bf0caccf66538ef,
        type: 3}
      propertyPath: m_LocalPosition.x
      value: 2.1523616
      objectReference: {fileID: 0}
    - target: {fileID: 5307761707323461460, guid: bd85b24c9747f9f40bf0caccf66538ef,
        type: 3}
      propertyPath: m_LocalPosition.y
      value: -8.73
      objectReference: {fileID: 0}
    - target: {fileID: 5307761707323461460, guid: bd85b24c9747f9f40bf0caccf66538ef,
        type: 3}
      propertyPath: m_LocalPosition.z
      value: 4.5634766
      objectReference: {fileID: 0}
    - target: {fileID: 5307761707323461460, guid: bd85b24c9747f9f40bf0caccf66538ef,
        type: 3}
      propertyPath: m_LocalRotation.w
      value: 1
      objectReference: {fileID: 0}
    - target: {fileID: 5307761707323461460, guid: bd85b24c9747f9f40bf0caccf66538ef,
        type: 3}
      propertyPath: m_LocalRotation.x
      value: -0
      objectReference: {fileID: 0}
    - target: {fileID: 5307761707323461460, guid: bd85b24c9747f9f40bf0caccf66538ef,
        type: 3}
      propertyPath: m_LocalRotation.y
      value: -0
      objectReference: {fileID: 0}
    - target: {fileID: 5307761707323461460, guid: bd85b24c9747f9f40bf0caccf66538ef,
        type: 3}
      propertyPath: m_LocalRotation.z
      value: -0
      objectReference: {fileID: 0}
    - target: {fileID: 5307761707323461460, guid: bd85b24c9747f9f40bf0caccf66538ef,
        type: 3}
      propertyPath: m_LocalEulerAnglesHint.x
      value: 0
      objectReference: {fileID: 0}
    - target: {fileID: 5307761707323461460, guid: bd85b24c9747f9f40bf0caccf66538ef,
        type: 3}
      propertyPath: m_LocalEulerAnglesHint.y
      value: 0
      objectReference: {fileID: 0}
    - target: {fileID: 5307761707323461460, guid: bd85b24c9747f9f40bf0caccf66538ef,
        type: 3}
      propertyPath: m_LocalEulerAnglesHint.z
      value: 0
      objectReference: {fileID: 0}
    - target: {fileID: 7041431514006817334, guid: bd85b24c9747f9f40bf0caccf66538ef,
        type: 3}
      propertyPath: m_Name
      value: NpcRightFinal Variant
      objectReference: {fileID: 0}
    m_RemovedComponents: []
  m_SourcePrefab: {fileID: 100100000, guid: bd85b24c9747f9f40bf0caccf66538ef, type: 3}
--- !u!4 &7126095969175336215 stripped
Transform:
  m_CorrespondingSourceObject: {fileID: 5307761707323461460, guid: bd85b24c9747f9f40bf0caccf66538ef,
    type: 3}
  m_PrefabInstance: {fileID: 3119885828498029123}
  m_PrefabAsset: {fileID: 0}
--- !u!1001 &8001632443854003764
PrefabInstance:
  m_ObjectHideFlags: 0
  serializedVersion: 2
  m_Modification:
    m_TransformParent: {fileID: 7126095969175336215}
    m_Modifications:
    - target: {fileID: 343134669906399044, guid: bd85b24c9747f9f40bf0caccf66538ef,
        type: 3}
      propertyPath: m_IsTrigger
      value: 0
      objectReference: {fileID: 0}
    - target: {fileID: 343134669906399044, guid: bd85b24c9747f9f40bf0caccf66538ef,
        type: 3}
      propertyPath: m_SpriteTilingProperty.border.x
      value: 0
      objectReference: {fileID: 0}
    - target: {fileID: 343134669906399044, guid: bd85b24c9747f9f40bf0caccf66538ef,
        type: 3}
      propertyPath: m_SpriteTilingProperty.border.z
      value: 0
      objectReference: {fileID: 0}
    - target: {fileID: 343134669906399044, guid: bd85b24c9747f9f40bf0caccf66538ef,
        type: 3}
      propertyPath: m_SpriteTilingProperty.oldSize.x
      value: 1.28
      objectReference: {fileID: 0}
    - target: {fileID: 343134669906399044, guid: bd85b24c9747f9f40bf0caccf66538ef,
        type: 3}
      propertyPath: m_SpriteTilingProperty.oldSize.y
      value: 1.28
      objectReference: {fileID: 0}
    - target: {fileID: 1130949503809781054, guid: bd85b24c9747f9f40bf0caccf66538ef,
        type: 3}
      propertyPath: m_Enabled
      value: 0
      objectReference: {fileID: 0}
    - target: {fileID: 5307761707323461460, guid: bd85b24c9747f9f40bf0caccf66538ef,
        type: 3}
      propertyPath: m_RootOrder
      value: 2
      objectReference: {fileID: 0}
    - target: {fileID: 5307761707323461460, guid: bd85b24c9747f9f40bf0caccf66538ef,
        type: 3}
      propertyPath: m_LocalScale.x
      value: 1
      objectReference: {fileID: 0}
    - target: {fileID: 5307761707323461460, guid: bd85b24c9747f9f40bf0caccf66538ef,
        type: 3}
      propertyPath: m_LocalScale.y
      value: 1
      objectReference: {fileID: 0}
    - target: {fileID: 5307761707323461460, guid: bd85b24c9747f9f40bf0caccf66538ef,
        type: 3}
      propertyPath: m_LocalPosition.x
      value: -0.8
      objectReference: {fileID: 0}
    - target: {fileID: 5307761707323461460, guid: bd85b24c9747f9f40bf0caccf66538ef,
        type: 3}
      propertyPath: m_LocalPosition.y
      value: 0
      objectReference: {fileID: 0}
    - target: {fileID: 5307761707323461460, guid: bd85b24c9747f9f40bf0caccf66538ef,
        type: 3}
      propertyPath: m_LocalPosition.z
      value: 0
      objectReference: {fileID: 0}
    - target: {fileID: 5307761707323461460, guid: bd85b24c9747f9f40bf0caccf66538ef,
        type: 3}
      propertyPath: m_LocalRotation.w
      value: 1
      objectReference: {fileID: 0}
    - target: {fileID: 5307761707323461460, guid: bd85b24c9747f9f40bf0caccf66538ef,
        type: 3}
      propertyPath: m_LocalRotation.x
      value: -0
      objectReference: {fileID: 0}
    - target: {fileID: 5307761707323461460, guid: bd85b24c9747f9f40bf0caccf66538ef,
        type: 3}
      propertyPath: m_LocalRotation.y
      value: -0
      objectReference: {fileID: 0}
    - target: {fileID: 5307761707323461460, guid: bd85b24c9747f9f40bf0caccf66538ef,
        type: 3}
      propertyPath: m_LocalRotation.z
      value: -0
      objectReference: {fileID: 0}
    - target: {fileID: 5307761707323461460, guid: bd85b24c9747f9f40bf0caccf66538ef,
        type: 3}
      propertyPath: m_LocalEulerAnglesHint.x
      value: 0
      objectReference: {fileID: 0}
    - target: {fileID: 5307761707323461460, guid: bd85b24c9747f9f40bf0caccf66538ef,
        type: 3}
      propertyPath: m_LocalEulerAnglesHint.y
      value: 0
      objectReference: {fileID: 0}
    - target: {fileID: 5307761707323461460, guid: bd85b24c9747f9f40bf0caccf66538ef,
        type: 3}
      propertyPath: m_LocalEulerAnglesHint.z
      value: 0
      objectReference: {fileID: 0}
    - target: {fileID: 7041431514006817334, guid: bd85b24c9747f9f40bf0caccf66538ef,
        type: 3}
      propertyPath: m_Name
      value: NpcRightFinal (1)
      objectReference: {fileID: 0}
    - target: {fileID: 7182711272865479198, guid: bd85b24c9747f9f40bf0caccf66538ef,
        type: 3}
      propertyPath: m_Sprite
      value: 
      objectReference: {fileID: 21300000, guid: ef74b58d52437ee4db5cbdd30bcf9afd,
        type: 3}
    m_RemovedComponents: []
  m_SourcePrefab: {fileID: 100100000, guid: bd85b24c9747f9f40bf0caccf66538ef, type: 3}
