%YAML 1.1
%TAG !u! tag:unity3d.com,2011:
--- !u!1001 &86951855676115093
PrefabInstance:
  m_ObjectHideFlags: 0
  serializedVersion: 2
  m_Modification:
    m_TransformParent: {fileID: 0}
    m_Modifications:
    - target: {fileID: 343134669906399044, guid: bd85b24c9747f9f40bf0caccf66538ef,
        type: 3}
      propertyPath: m_IsTrigger
      value: 0
      objectReference: {fileID: 0}
    - target: {fileID: 343134669906399044, guid: bd85b24c9747f9f40bf0caccf66538ef,
        type: 3}
      propertyPath: m_SpriteTilingProperty.border.x
      value: 0
      objectReference: {fileID: 0}
    - target: {fileID: 343134669906399044, guid: bd85b24c9747f9f40bf0caccf66538ef,
        type: 3}
      propertyPath: m_SpriteTilingProperty.border.z
      value: 0
      objectReference: {fileID: 0}
    - target: {fileID: 343134669906399044, guid: bd85b24c9747f9f40bf0caccf66538ef,
        type: 3}
      propertyPath: m_SpriteTilingProperty.oldSize.x
      value: 1.28
      objectReference: {fileID: 0}
    - target: {fileID: 343134669906399044, guid: bd85b24c9747f9f40bf0caccf66538ef,
        type: 3}
      propertyPath: m_SpriteTilingProperty.oldSize.y
      value: 1.28
      objectReference: {fileID: 0}
    - target: {fileID: 1130949503809781054, guid: bd85b24c9747f9f40bf0caccf66538ef,
        type: 3}
      propertyPath: _data._objectReferences.Array.data[0]
      value: 
      objectReference: {fileID: 11400000, guid: 569a48260cc115446ae640cf42ac2058,
        type: 2}
    - target: {fileID: 5307761707323461460, guid: bd85b24c9747f9f40bf0caccf66538ef,
        type: 3}
      propertyPath: m_LocalPosition.x
      value: 2.25
      objectReference: {fileID: 0}
    - target: {fileID: 5307761707323461460, guid: bd85b24c9747f9f40bf0caccf66538ef,
        type: 3}
      propertyPath: m_LocalPosition.y
      value: -3.21
      objectReference: {fileID: 0}
    - target: {fileID: 5307761707323461460, guid: bd85b24c9747f9f40bf0caccf66538ef,
        type: 3}
      propertyPath: m_LocalPosition.z
      value: 4.5634766
      objectReference: {fileID: 0}
    - target: {fileID: 5307761707323461460, guid: bd85b24c9747f9f40bf0caccf66538ef,
        type: 3}
      propertyPath: m_LocalRotation.x
      value: -0
      objectReference: {fileID: 0}
    - target: {fileID: 5307761707323461460, guid: bd85b24c9747f9f40bf0caccf66538ef,
        type: 3}
      propertyPath: m_LocalRotation.y
      value: -0
      objectReference: {fileID: 0}
    - target: {fileID: 5307761707323461460, guid: bd85b24c9747f9f40bf0caccf66538ef,
        type: 3}
      propertyPath: m_LocalRotation.z
      value: -0
      objectReference: {fileID: 0}
    - target: {fileID: 5307761707323461460, guid: bd85b24c9747f9f40bf0caccf66538ef,
        type: 3}
      propertyPath: m_LocalRotation.w
      value: 1
      objectReference: {fileID: 0}
    - target: {fileID: 5307761707323461460, guid: bd85b24c9747f9f40bf0caccf66538ef,
        type: 3}
      propertyPath: m_RootOrder
      value: 0
      objectReference: {fileID: 0}
    - target: {fileID: 5307761707323461460, guid: bd85b24c9747f9f40bf0caccf66538ef,
        type: 3}
      propertyPath: m_LocalEulerAnglesHint.x
      value: 0
      objectReference: {fileID: 0}
    - target: {fileID: 5307761707323461460, guid: bd85b24c9747f9f40bf0caccf66538ef,
        type: 3}
      propertyPath: m_LocalEulerAnglesHint.y
      value: 0
      objectReference: {fileID: 0}
    - target: {fileID: 5307761707323461460, guid: bd85b24c9747f9f40bf0caccf66538ef,
        type: 3}
      propertyPath: m_LocalEulerAnglesHint.z
      value: 0
      objectReference: {fileID: 0}
    - target: {fileID: 7041431514006817334, guid: bd85b24c9747f9f40bf0caccf66538ef,
        type: 3}
      propertyPath: m_Name
      value: NpcUp
      objectReference: {fileID: 0}
    - target: {fileID: 7182711272865479198, guid: bd85b24c9747f9f40bf0caccf66538ef,
        type: 3}
      propertyPath: m_Sprite
      value: 
      objectReference: {fileID: 21300000, guid: 17ccb4f66e9052644878efab7a71cf3a,
        type: 3}
    m_RemovedComponents: []
  m_SourcePrefab: {fileID: 100100000, guid: bd85b24c9747f9f40bf0caccf66538ef, type: 3}
--- !u!4 &5232091390771283905 stripped
Transform:
  m_CorrespondingSourceObject: {fileID: 5307761707323461460, guid: bd85b24c9747f9f40bf0caccf66538ef,
    type: 3}
  m_PrefabInstance: {fileID: 86951855676115093}
  m_PrefabAsset: {fileID: 0}
--- !u!1001 &86951856211907715
PrefabInstance:
  m_ObjectHideFlags: 0
  serializedVersion: 2
  m_Modification:
    m_TransformParent: {fileID: 5232091390771283905}
    m_Modifications:
    - target: {fileID: 343134669906399044, guid: bd85b24c9747f9f40bf0caccf66538ef,
        type: 3}
      propertyPath: m_IsTrigger
      value: 0
      objectReference: {fileID: 0}
    - target: {fileID: 343134669906399044, guid: bd85b24c9747f9f40bf0caccf66538ef,
        type: 3}
      propertyPath: m_SpriteTilingProperty.border.x
      value: 0
      objectReference: {fileID: 0}
    - target: {fileID: 343134669906399044, guid: bd85b24c9747f9f40bf0caccf66538ef,
        type: 3}
      propertyPath: m_SpriteTilingProperty.border.z
      value: 0
      objectReference: {fileID: 0}
    - target: {fileID: 343134669906399044, guid: bd85b24c9747f9f40bf0caccf66538ef,
        type: 3}
      propertyPath: m_SpriteTilingProperty.oldSize.x
      value: 1.28
      objectReference: {fileID: 0}
    - target: {fileID: 343134669906399044, guid: bd85b24c9747f9f40bf0caccf66538ef,
        type: 3}
      propertyPath: m_SpriteTilingProperty.oldSize.y
      value: 1.28
      objectReference: {fileID: 0}
    - target: {fileID: 1130949503809781054, guid: bd85b24c9747f9f40bf0caccf66538ef,
        type: 3}
      propertyPath: _data._objectReferences.Array.data[0]
      value: 
      objectReference: {fileID: 11400000, guid: 569a48260cc115446ae640cf42ac2058,
        type: 2}
    - target: {fileID: 1130949503809781054, guid: bd85b24c9747f9f40bf0caccf66538ef,
        type: 3}
      propertyPath: m_Enabled
      value: 0
      objectReference: {fileID: 0}
    - target: {fileID: 5307761707323461460, guid: bd85b24c9747f9f40bf0caccf66538ef,
        type: 3}
      propertyPath: m_LocalPosition.x
      value: -0.613
      objectReference: {fileID: 0}
    - target: {fileID: 5307761707323461460, guid: bd85b24c9747f9f40bf0caccf66538ef,
        type: 3}
      propertyPath: m_LocalPosition.y
      value: 0
      objectReference: {fileID: 0}
    - target: {fileID: 5307761707323461460, guid: bd85b24c9747f9f40bf0caccf66538ef,
        type: 3}
      propertyPath: m_LocalPosition.z
      value: 0
      objectReference: {fileID: 0}
    - target: {fileID: 5307761707323461460, guid: bd85b24c9747f9f40bf0caccf66538ef,
        type: 3}
      propertyPath: m_LocalRotation.x
      value: -0
      objectReference: {fileID: 0}
    - target: {fileID: 5307761707323461460, guid: bd85b24c9747f9f40bf0caccf66538ef,
        type: 3}
      propertyPath: m_LocalRotation.y
      value: -0
      objectReference: {fileID: 0}
    - target: {fileID: 5307761707323461460, guid: bd85b24c9747f9f40bf0caccf66538ef,
        type: 3}
      propertyPath: m_LocalRotation.z
      value: -0
      objectReference: {fileID: 0}
    - target: {fileID: 5307761707323461460, guid: bd85b24c9747f9f40bf0caccf66538ef,
        type: 3}
      propertyPath: m_LocalRotation.w
      value: 1
      objectReference: {fileID: 0}
    - target: {fileID: 5307761707323461460, guid: bd85b24c9747f9f40bf0caccf66538ef,
        type: 3}
      propertyPath: m_RootOrder
      value: 2
      objectReference: {fileID: 0}
    - target: {fileID: 5307761707323461460, guid: bd85b24c9747f9f40bf0caccf66538ef,
        type: 3}
      propertyPath: m_LocalEulerAnglesHint.x
      value: 0
      objectReference: {fileID: 0}
    - target: {fileID: 5307761707323461460, guid: bd85b24c9747f9f40bf0caccf66538ef,
        type: 3}
      propertyPath: m_LocalEulerAnglesHint.y
      value: 0
      objectReference: {fileID: 0}
    - target: {fileID: 5307761707323461460, guid: bd85b24c9747f9f40bf0caccf66538ef,
        type: 3}
      propertyPath: m_LocalEulerAnglesHint.z
      value: 0
      objectReference: {fileID: 0}
    - target: {fileID: 5307761707323461460, guid: bd85b24c9747f9f40bf0caccf66538ef,
        type: 3}
      propertyPath: m_LocalScale.x
      value: 1
      objectReference: {fileID: 0}
    - target: {fileID: 5307761707323461460, guid: bd85b24c9747f9f40bf0caccf66538ef,
        type: 3}
      propertyPath: m_LocalScale.y
      value: 1
      objectReference: {fileID: 0}
    - target: {fileID: 7041431514006817334, guid: bd85b24c9747f9f40bf0caccf66538ef,
        type: 3}
      propertyPath: m_Name
      value: NpcUp (1)
      objectReference: {fileID: 0}
    - target: {fileID: 7182711272865479198, guid: bd85b24c9747f9f40bf0caccf66538ef,
        type: 3}
      propertyPath: m_Sprite
      value: 
      objectReference: {fileID: 21300000, guid: 0c5864e9143408b43872f8013130401a,
        type: 3}
    m_RemovedComponents: []
  m_SourcePrefab: {fileID: 100100000, guid: bd85b24c9747f9f40bf0caccf66538ef, type: 3}
