%YAML 1.1
%TAG !u! tag:unity3d.com,2011:
--- !u!114 &11400000
MonoBehaviour:
  m_ObjectHideFlags: 0
  m_CorrespondingSourceObject: {fileID: 0}
  m_PrefabInstance: {fileID: 0}
  m_PrefabAsset: {fileID: 0}
  m_GameObject: {fileID: 0}
  m_Enabled: 1
  m_EditorHideFlags: 0
  m_Script: {fileID: -1893448595, guid: a040fb66244a7f54289914d98ea4ef7d, type: 3}
  m_Name: NpcD_Down
  m_EditorClassIdentifier: 
  _data:
    _json: '{"graph":{"variables":{"collection":{"$content":[],"$version":"A"},"$version":"A"},"controlInputDefinitions":[],"controlOutputDefinitions":[],"valueInputDefinitions":[],"valueOutputDefinitions":[],"title":null,"summary":null,"pan":{"x":-0.04796553,"y":317.4745},"zoom":0.8,"elements":[{"numeric":true,"defaultValues":{"b":{"$content":0.0,"$type":"System.Single"}},"position":{"x":-363.0,"y":54.0},"guid":"55327c5b-3b97-40cf-aa7a-f4ca52225063","$version":"A","$type":"Bolt.GreaterOrEqual","$id":"9"},{"defaultValues":{},"position":{"x":-119.0,"y":412.0},"guid":"410c7799-a032-4bd6-a9fe-19676829a1a0","$version":"A","$type":"Bolt.GenericMultiply","$id":"11"},{"defaultValues":{},"position":{"x":920.0,"y":188.0},"guid":"78cb849f-2b85-45c9-a680-0524635d672f","$version":"A","$type":"Bolt.GenericMultiply","$id":"13"},{"defaultValues":{},"position":{"x":-144.0,"y":221.0},"guid":"51aae788-6fec-4570-b0fd-708b7425dcd8","$version":"A","$type":"Bolt.GenericMultiply","$id":"15"},{"specifyFallback":false,"kind":"Object","defaultValues":{"name":{"$content":"speed","$type":"System.String"},"object":null},"position":{"x":-720.0,"y":143.0},"guid":"ba3f500f-ff51-43b2-b5ab-86d0358c7fef","$version":"A","$type":"Bolt.GetVariable","$id":"17"},{"defaultValues":{},"position":{"x":-457.0,"y":215.0},"guid":"6b1763b1-1f82-4153-b56f-1759d89cb951","$version":"A","$type":"Bolt.GenericMultiply","$id":"19"},{"type":"System.Single","value":{"$content":-1.0,"$type":"System.Single"},"defaultValues":{},"position":{"x":-674.0,"y":259.0},"guid":"23979706-7e94-470c-be15-49410dd84079","$version":"A","$type":"Bolt.Literal","$id":"21"},{"specifyFallback":false,"kind":"Object","defaultValues":{"name":{"$content":"speed","$type":"System.String"},"object":null},"position":{"x":734.0,"y":224.0},"guid":"7decaa4c-96e8-4182-9344-55404dcc24d6","$version":"A","$type":"Bolt.GetVariable","$id":"23"},{"chainable":false,"member":{"name":"flipX","parameterTypes":null,"targetType":"UnityEngine.SpriteRenderer","targetTypeName":"UnityEngine.SpriteRenderer","$version":"A"},"defaultValues":{"target":null,"input":{"$content":false,"$type":"System.Boolean"}},"position":{"x":40.0,"y":-98.0},"guid":"f90d6aab-189b-4c43-a486-c22a13edba2d","$version":"A","$type":"Bolt.SetMember","$id":"25"},{"chainable":false,"member":{"name":"Translate","parameterTypes":["System.Single","System.Single","System.Single"],"targetType":"UnityEngine.Transform","targetTypeName":"UnityEngine.Transform","$version":"A"},"defaultValues":{"target":null,"%x":{"$content":0.0,"$type":"System.Single"},"%y":{"$content":0.0,"$type":"System.Single"},"%z":{"$content":0.0,"$type":"System.Single"}},"position":{"x":296.0,"y":222.0},"guid":"0e58986b-5ed4-47d6-a654-d60fd423226c","$version":"A","$type":"Bolt.InvokeMember","$id":"28"},{"type":"System.Single","value":{"$content":-1.0,"$type":"System.Single"},"defaultValues":{},"position":{"x":780.0,"y":340.0},"guid":"734758d1-c74b-4d13-a0cd-88c1b03f9f95","$version":"A","$type":"Bolt.Literal","$id":"31"},{"coroutine":false,"defaultValues":{"target":null},"position":{"x":660.0,"y":-6.0},"guid":"830d6251-a74c-4fcf-acef-e54e089f1c21","$version":"A","$type":"Bolt.OnCollisionEnter2D","$id":"33"},{"member":{"name":"deltaTime","parameterTypes":null,"targetType":"UnityEngine.Time","targetTypeName":"UnityEngine.Time","$version":"A"},"defaultValues":{},"position":{"x":-478.0,"y":409.0},"guid":"07e2e2f2-c556-4b72-bbaa-4c8cce5d5775","$version":"A","$type":"Bolt.GetMember","$id":"35"},{"coroutine":false,"defaultValues":{},"position":{"x":-536.0,"y":-168.0},"guid":"338c6604-8dcf-4925-be8b-284d28eb8e2d","$version":"A","$type":"Bolt.Update","$id":"38"},{"specifyFallback":false,"kind":"Object","defaultValues":{"name":{"$content":"speed","$type":"System.String"},"object":null},"position":{"x":-479.0,"y":534.0},"guid":"7f1fb98c-d0f7-41c4-a27e-b30ba5addd3d","$version":"A","$type":"Bolt.GetVariable","$id":"40"},{"kind":"Object","defaultValues":{"name":{"$content":"speed","$type":"System.String"},"object":null},"position":{"x":1096.0,"y":81.0},"guid":"f0089ffe-c441-4d8d-899c-c7c0369d0841","$version":"A","$type":"Bolt.SetVariable","$id":"42"},{"defaultValues":{},"position":{"x":-157.0,"y":-67.0},"guid":"ff8a41d5-5531-43f3-abdb-c414ce18e4c8","$version":"A","$type":"Bolt.Branch","$id":"44"},{"chainable":false,"member":{"name":"flipX","parameterTypes":null,"targetType":"UnityEngine.SpriteRenderer","targetTypeName":"UnityEngine.SpriteRenderer","$version":"A"},"defaultValues":{"target":null,"input":{"$content":true,"$type":"System.Boolean"}},"position":{"x":37.0,"y":76.0},"guid":"1aaebcc4-af20-49a3-9414-33eca67fa37a","$version":"A","$type":"Bolt.SetMember","$id":"46"},{"sourceUnit":{"$ref":"44"},"sourceKey":"ifTrue","destinationUnit":{"$ref":"25"},"destinationKey":"assign","guid":"7af376df-5788-4cca-9880-c78cca894023","$type":"Bolt.ControlConnection"},{"sourceUnit":{"$ref":"33"},"sourceKey":"trigger","destinationUnit":{"$ref":"42"},"destinationKey":"assign","guid":"830abe6c-38a8-4f5e-9223-4a3d92b39e87","$type":"Bolt.ControlConnection"},{"sourceUnit":{"$ref":"38"},"sourceKey":"trigger","destinationUnit":{"$ref":"44"},"destinationKey":"enter","guid":"4d1be1ac-beae-403d-b437-3ec172bc5664","$type":"Bolt.ControlConnection"},{"sourceUnit":{"$ref":"25"},"sourceKey":"assigned","destinationUnit":{"$ref":"28"},"destinationKey":"enter","guid":"fc01acac-474c-4497-b47a-a487434e67a8","$type":"Bolt.ControlConnection"},{"sourceUnit":{"$ref":"44"},"sourceKey":"ifFalse","destinationUnit":{"$ref":"46"},"destinationKey":"assign","guid":"248f5832-145c-48ee-be94-248023e64ef5","$type":"Bolt.ControlConnection"},{"sourceUnit":{"$ref":"46"},"sourceKey":"assigned","destinationUnit":{"$ref":"28"},"destinationKey":"enter","guid":"380e462a-d6b2-4c1a-adb0-eedc89886de9","$type":"Bolt.ControlConnection"},{"sourceUnit":{"$ref":"19"},"sourceKey":"product","destinationUnit":{"$ref":"15"},"destinationKey":"b","guid":"cb94d321-1378-4f08-9bff-d39d2517d66a","$type":"Bolt.ValueConnection"},{"sourceUnit":{"$ref":"11"},"sourceKey":"product","destinationUnit":{"$ref":"28"},"destinationKey":"%x","guid":"ea5634cf-2f5b-4227-8ba1-eb8e182c4a62","$type":"Bolt.ValueConnection"},{"sourceUnit":{"$ref":"17"},"sourceKey":"value","destinationUnit":{"$ref":"19"},"destinationKey":"a","guid":"23392dd5-008a-4c00-956b-7013d409655b","$type":"Bolt.ValueConnection"},{"sourceUnit":{"$ref":"13"},"sourceKey":"product","destinationUnit":{"$ref":"42"},"destinationKey":"input","guid":"19ed195c-a80d-4fa1-9667-3318be7814cf","$type":"Bolt.ValueConnection"},{"sourceUnit":{"$ref":"35"},"sourceKey":"value","destinationUnit":{"$ref":"11"},"destinationKey":"a","guid":"ad169502-a3e0-4779-bca8-0acd73e08a63","$type":"Bolt.ValueConnection"},{"sourceUnit":{"$ref":"21"},"sourceKey":"output","destinationUnit":{"$ref":"19"},"destinationKey":"b","guid":"ccdb2d11-6308-4cee-a774-446a1c7ce4e5","$type":"Bolt.ValueConnection"},{"sourceUnit":{"$ref":"9"},"sourceKey":"comparison","destinationUnit":{"$ref":"44"},"destinationKey":"condition","guid":"511a6168-66b1-42c2-aeda-aead5bc0abe6","$type":"Bolt.ValueConnection"},{"sourceUnit":{"$ref":"40"},"sourceKey":"value","destinationUnit":{"$ref":"11"},"destinationKey":"b","guid":"821b9109-e4cd-4522-ab0e-62561304f10a","$type":"Bolt.ValueConnection"},{"sourceUnit":{"$ref":"31"},"sourceKey":"output","destinationUnit":{"$ref":"13"},"destinationKey":"b","guid":"7a596e2d-f811-42c9-8f6d-ccfbfef0918c","$type":"Bolt.ValueConnection"},{"sourceUnit":{"$ref":"15"},"sourceKey":"product","destinationUnit":{"$ref":"28"},"destinationKey":"%y","guid":"fa6cbb14-5c08-4fcc-bdbd-bac3ff9514be","$type":"Bolt.ValueConnection"},{"sourceUnit":{"$ref":"23"},"sourceKey":"value","destinationUnit":{"$ref":"13"},"destinationKey":"a","guid":"20e6d403-22fb-4303-88dc-2875afa17c54","$type":"Bolt.ValueConnection"},{"sourceUnit":{"$ref":"21"},"sourceKey":"output","destinationUnit":{"$ref":"9"},"destinationKey":"a","guid":"0817723a-5255-4aec-9a08-3f8cf7d75098","$type":"Bolt.ValueConnection"},{"sourceUnit":{"$ref":"35"},"sourceKey":"value","destinationUnit":{"$ref":"15"},"destinationKey":"a","guid":"6153fecc-1012-4e62-80e0-5c4500a683fa","$type":"Bolt.ValueConnection"},{"position":{"xMin":597.6668,"yMin":-74.33324,"xMax":1291.0,"yMax":450.6668},"label":"Collide","comment":null,"color":{"r":0.0,"g":0.0,"b":0.0,"a":1.0},"guid":"f3bc852d-91d8-4a89-9028-a617e0c8e55b","$version":"A","$type":"Ludiq.GraphGroup"}],"$version":"A"}}'
    _objectReferences: []
